<?xml version="1.0" encoding="UTF-8"?>
<svg width="16px" height="13px" viewBox="0 0 16 13" version="1.1" xmlns="http://www.w3.org/2000/svg" xmlns:xlink="http://www.w3.org/1999/xlink">
    <title>59E1A86F-E13E-46C0-A899-21E809ABE47A</title>
    <g id="Page-1" stroke="none" stroke-width="1" fill="none" fill-rule="evenodd">
        <g id="export-tempbilder" transform="translate(-878.000000, -228.000000)" fill="#101010" fill-rule="nonzero">
            <path d="M883.373428,240.315656 L893.913686,229.775364 C894.078447,229.610638 894.078447,229.343499 893.913686,229.178739 L892.919357,228.184376 C892.754597,228.01965 892.487493,228.01965 892.322733,228.184376 L883.075116,237.431992 L879.677224,234.034101 C879.512464,233.869341 879.24536,233.869341 879.080565,234.034101 L878.086236,235.02843 C877.921476,235.19319 877.921476,235.460295 878.086236,235.625089 L882.776804,240.315656 C882.941529,240.480382 883.208634,240.480382 883.373428,240.315656 Z" id="check"></path>
        </g>
    </g>
</svg>